…
    allvsd %>% filter(samples == "blk11.x_female_gonad_bldg")

    ## # A tibble: 81,947 x 4
    ##    file_name                             gene    samples             counts
    ##    <chr>                                 <chr>   <chr>                <dbl>
    ##  1 ../results/DEseq2/treatment/female_g… A2ML1   blk11.x_female_gon…   7.60
    ##  2 ../results/DEseq2/treatment/female_g… A2ML2   blk11.x_female_gon…   5.33
    ##  3 ../results/DEseq2/treatment/female_g… A2ML3   blk11.x_female_gon…  10.2 
    ##  4 ../results/DEseq2/treatment/female_g… A2ML4   blk11.x_female_gon…   4.69
    ##  5 ../results/DEseq2/treatment/female_g… A4GALT  blk11.x_female_gon…   6.37
    ##  6 ../results/DEseq2/treatment/female_g… A4GNT   blk11.x_female_gon…   5.59
    ##  7 ../results/DEseq2/treatment/female_g… AAAS    blk11.x_female_gon…   8.55
    ##  8 ../results/DEseq2/treatment/female_g… AACS    blk11.x_female_gon…  10.4 
    ##  9 ../results/DEseq2/treatment/female_g… AADACL4 blk11.x_female_gon…   5.69
    ## 10 ../results/DEseq2/treatment/female_g… AADAT   blk11.x_female_gon…   7.52
    ## # … with 81,937 more rows
…
