…
    # because DESeq require integers
    countData <- round(countData)

    # print tolal num of genes and samples
    dim(countData)

    ## [1] 14937   987

    # make a tibble for the sole purpose of previewing this huge df
    countDataTibble <- as.tbl(countData)
    print(countDataTibble, n_extra = 0)

    ## # A tibble: 14,937 x 987
    ##    L.Blu13_male_go… L.Blu13_male_hy… L.Blu13_male_pi… L.G107_male_gon…
    ##               <dbl>            <dbl>            <dbl>            <dbl>
    ##  1                6               37               46                7
    ##  2                1                0               47                2
    ##  3              408               72              197              728
    ##  4                1                0                0                1
    ##  5                0                0                0                2
    ##  6               65                3               30              147
    ##  7               12                1                1                0
    ##  8               38               21                1               97
    ##  9                2              142               12                0
    ## 10                3                7                4                4
    ## # … with 14,927 more rows, and 983 more variables
…
