…
    dt8 <- returnGOgenes(GOterms,n5.n9, "n5 v n9") 

    ## Joining, by = "gene"

    ## Warning: Column `gene` joining character vector and factor, coercing into
    ## character vector

    alldt <- rbind(dt1,dt2,dt3,dt4,dt5,dt6,dt7,dt8)
    alldt

    ## # A tibble: 33 x 3
    ##    comparison   GO                     genes                               
    ##    <chr>        <chr>                  <chr>                               
    ##  1 control v b behavior, GO:0007610   AVP, DRD1, GNAQ, MBD2, NR3C1, OXT, 
    ##  2 control v b endocrine process, GO ACE2, ACVR2A, AVPR2, CGA, CORIN, CR
    ##  3 control v b parental behavior, GO AVP, DRD1, GNAQ, MBD2, NR3C1, OXT, 
    ##  4 control v b reproduction, GO:0000 AAAS, ABAT, ABCG2, ABL2, ACOX1, ACR
    ##  5 control v b response to external  ABAT, ABCC1, ABCC8, ABCD2, ABCF3, A
    ##  6 control v b system development, G ABCC8, ABCD2, ABI1, ABL2, ABR, ACAP
    ##  7 bldg v lay   endocrine process, GO AGT, BMP6, CGA, GAL                 
    ##  8 bldg v lay   reproduction, GO:0000 ACSBG2, AGT, ARID4B, BMP6, CEBPA, C
    ##  9 bldg v lay   response to external  AGT, BMP6, BSG, C8G, CAPG, CD34, CD
    ## 10 bldg v lay   system development, G ASTN1, ATCAY, BMI1, BMP6, BRINP2, B
    ## #  with 23 more rows
…
