…
    write.csv(manipDEGs, "../results/manipDEGs.csv")

### overlapp

    removalcomps <- c("inc.d3_m.inc.d3", "inc.d9_m.inc.d9", "inc.d17_m.inc.d17", "hatch_m.n2")
    early <- c("early_inc.d9", "hatch_early")
    late <- c("hatch_prolong", "inc.d17_prolong")


    filteredDEGs %>%
      filter(comparison %in% removalcomps)  %>%
      select(sex:gene) %>%
      pivot_wider(names_from = comparison, values_from = direction)

    ## # A tibble: 1,847 x 7
    ##    sex   tissue gene  hatch_m.n2 inc.d17_m.inc.d… inc.d3_m.inc.d3
    ##    <chr> <chr>  <chr> <chr>      <chr>            <chr>          
    ##  1 fema… gonad  IQCG  m.n2       <NA>             <NA>           
    ##  2 fema… gonad  LOC1… m.n2       <NA>             m.inc.d3       
    ##  3 fema… gonad  PI15  m.n2       m.inc.d17        m.inc.d3       
    ##  4 fema… gonad  REG4  m.n2       <NA>             <NA>           
    ##  5 fema… gonad  MMP13 m.n2       <NA>             <NA>           
    ##  6 fema… gonad  SLC2… m.n2       <NA>             <NA>           
    ##  7 fema… gonad  GMNC  m.n2       m.inc.d17        <NA>           
    ##  8 fema… gonad  AGT   m.n2       <NA>             <NA>           
    ##  9 fema… gonad  JPH2  m.n2       <NA>             <NA>           
    ## 10 fema… gonad  PHGDH m.n2       <NA>             <NA>           
    ## # … with 1,837 more rows, and 1 more variable: inc.d9_m.inc.d9 <chr>
…
