…
    source("../R/themes.R")  # load custom themes and color palletes
    source("../R/icons.R")

    ## Warning: Column `icons` joining factor and character vector, coercing into
    ## character vector

    knitr::opts_chunk$set(fig.path = '../figures/hormones/',message=F, warning=FALSE, cache = T)

    colData  <- read_csv("../metadata/00_birds.csv") %>%
      mutate(RNAseq = "RNAseq",
             bird_id = bird)  %>%
       select(-X1, -bird)
    colData

    ## # A tibble: 334 x 4
    ##    sex    treatment RNAseq bird_id
    ##    <chr>  <chr>     <chr>  <chr>  
    ##  1 male   control   RNAseq L.Blu13
    ##  2 male   control   RNAseq L.G107 
    ##  3 female control   RNAseq L.G118 
    ##  4 male   control   RNAseq L.R3   
    ##  5 male   control   RNAseq L.R8   
    ##  6 male   control   RNAseq L.W33  
    ##  7 male   control   RNAseq L.W3   
    ##  8 male   control   RNAseq L.W4   
    ##  9 female control   RNAseq R.G106 
    ## 10 female control   RNAseq R.R20  
    ## # … with 324 more rows
…
