…
    feelinggood <- as.data.frame(t(rbind(position, gene1,gene2,gene3)))
    feelinggood$song <- song
    feelinggood$stage <- stage
    feelinggood$image <- sample(c("https://cdn.pixabay.com/photo/2016/03/23/20/49/music-note-1275650_960_720.png"), 
                            size=9, replace = TRUE)
    feelinggood <- feelinggood %>%
      pivot_longer(gene1:gene3, names_to = "music", values_to = "genes")   %>%
      mutate(songstage = paste(song,stage, sep = "\n\n"))
    feelinggood

    ## # A tibble: 27 x 7
    ##    position song  stage  image                      music genes songstage  
    ##       <dbl> <chr> <chr>  <chr>                      <chr> <dbl> <chr>      
    ##  1        1 Birds contr… https://cdn.pixabay.com/p… gene1    -3 "Birds\n\n…
    ##  2        1 Birds contr… https://cdn.pixabay.com/p… gene2    -3 "Birds\n\n…
    ##  3        1 Birds contr… https://cdn.pixabay.com/p… gene3    -3 "Birds\n\n…
    ##  4        2 fly-  bldg   https://cdn.pixabay.com/p… gene1    -1 "fly-\n\nb…
    ##  5        2 fly-  bldg   https://cdn.pixabay.com/p… gene2    -1 "fly-\n\nb…
    ##  6        2 fly-  bldg   https://cdn.pixabay.com/p… gene3    -1 "fly-\n\nb…
    ##  7        3 ing   lay    https://cdn.pixabay.com/p… gene1     0 "ing\n\nla…
    ##  8        3 ing   lay    https://cdn.pixabay.com/p… gene2     0 "ing\n\nla…
    ##  9        3 ing   lay    https://cdn.pixabay.com/p… gene3     0 "ing\n\nla…
    ## 10        4 high, inc.d3 https://cdn.pixabay.com/p… gene1     1 "high,\n\n…
    ## # … with 17 more rows
…
    sinnerman <- as.data.frame(t(rbind(position, gene1,gene2,gene3)))
    sinnerman$song <- song
    sinnerman$stage <- stage
    sinnerman$image <- sample(c("https://cdn.pixabay.com/photo/2016/03/23/20/49/music-note-1275650_960_720.png"), 
                            size=11, replace = TRUE)
    sinnerman <- sinnerman %>%
      pivot_longer(gene1:gene3, names_to = "music", values_to = "genes")   %>%
      mutate(songstage = paste(song,stage, sep = "\n\n"))
    sinnerman

    ## # A tibble: 33 x 7
    ##    position song  stage  image                     music genes songstage   
    ##       <dbl> <chr> <chr>  <chr>                     <chr> <dbl> <chr>       
    ##  1        1 Oh,   bldg   https://cdn.pixabay.com/… gene1     0 "Oh,\n\nbld…
    ##  2        1 Oh,   bldg   https://cdn.pixabay.com/… gene2     2 "Oh,\n\nbld…
    ##  3        1 Oh,   bldg   https://cdn.pixabay.com/… gene3     4 "Oh,\n\nbld…
    ##  4        2 sin-  lay    https://cdn.pixabay.com/… gene1     0 "sin-\n\nla…
    ##  5        2 sin-  lay    https://cdn.pixabay.com/… gene2     2 "sin-\n\nla…
    ##  6        2 sin-  lay    https://cdn.pixabay.com/… gene3     4 "sin-\n\nla…
    ##  7        3 ner   inc.d3 https://cdn.pixabay.com/… gene1     0 "ner\n\ninc…
    ##  8        3 ner   inc.d3 https://cdn.pixabay.com/… gene2     2 "ner\n\ninc…
    ##  9        3 ner   inc.d3 https://cdn.pixabay.com/… gene3     4 "ner\n\ninc…
    ## 10        4 man,, m.inc… https://cdn.pixabay.com/… gene1     0 "man,,\n\nm…
    ## # … with 23 more rows
…
