…
    allDEG2$tissue <- factor(allDEG2$tissue, levels = tissuelevel)

    allDEG2$comparison <- factor(allDEG2$comparison, levels = c("eggs_chicks", "lo_hi"))
    allDEG2 <- allDEG2 %>% mutate(comparison = fct_recode(comparison, "lo vs. hi PRL   " = "lo_hi",
                                                          "eggs vs. chicks" = "eggs_chicks"))
    allDEG2$direction <- factor(allDEG2$direction, levels = c("eggs", "chicks", "lo", "hi"))


    PRLDEGs <- allDEG2 %>%
      filter(tissue == "pituitary", comparison == "lo vs. hi PRL   ",
             direction == "hi") %>%
      arrange(desc(comparison))
    PRLDEGs

    ## # A tibble: 3,022 x 8
    ##    sex    tissue   comparison     direction gene       lfc     padj logpadj
    ##    <chr>  <fct>    <fct>          <fct>     <chr>    <dbl>    <dbl>   <dbl>
    ##  1 female pituita… "lo vs. hi PR… hi        KPNA2     4.39 1.09e-17   17.0 
    ##  2 female pituita… "lo vs. hi PR… hi        FOXM1     4.19 3.60e- 8    7.44
    ##  3 female pituita… "lo vs. hi PR… hi        FGF6      4.13 2.41e-16   15.6 
    ##  4 female pituita… "lo vs. hi PR… hi        PRC1      4.08 1.13e- 3    2.95
    ##  5 female pituita… "lo vs. hi PR… hi        LOC1017…  4.01 2.31e-17   16.6 
    ##  6 female pituita… "lo vs. hi PR… hi        SHCBP1    3.83 9.89e-13   12.0 
    ##  7 female pituita… "lo vs. hi PR… hi        RRM2      3.77 6.24e-15   14.2 
    ##  8 female pituita… "lo vs. hi PR… hi        CKAP2     3.77 4.76e-17   16.3 
    ##  9 female pituita… "lo vs. hi PR… hi        CDK1      3.68 6.24e-15   14.2 
    ## 10 female pituita… "lo vs. hi PR… hi        CCNB3     3.61 1.65e-12   11.8 
    ## # … with 3,012 more rows
    ## genes WGCNA prl module

    PRLgenes <- read_csv("../results/PRLmodule.csv") %>% pull(x)

    candidatevsd <- getcandidatevsd(PRLgenes, "pituitary", sexlevels) 

    df <- candidatevsd %>%
        pivot_wider(names_from = gene, values_from = counts) %>%
        select(-sex,-tissue, -treatment, -samples) %>%
        correlate() %>%
      focus(PRL)  %>%
      arrange(rowname)
    df

    ## # A tibble: 57 x 2
    ##    rowname     PRL
    ##    <chr>     <dbl>
    ##  1 ACOT12    0.137
    ##  2 AGR2      0.633
    ##  3 ARAP2     0.648
    ##  4 C2H8ORF46 0.253
    ##  5 CALN1     0.744
    ##  6 CD24      0.880
    ##  7 CDKN3     0.544
    ##  8 CDT1      0.499
    ##  9 CHRNB4    0.591
    ## 10 COL20A1   0.662
    ## # … with 47 more rows
…
