…
    manipulationsandcontrols <- c(controlsremoval, levelsreplace, levelsremoval)



    allDEG$tissue <- factor(allDEG$tissue , levels = tissuelevel)
    allDEG$comparison <- factor(allDEG$comparison , levels = comparisonlevels)
    allDEG$direction <- factor(allDEG$direction, levels = manipulationsandcontrols)


    allDEG %>%
      group_by(sex, tissue, comparison) %>%
      summarize(n = n())

    ## # A tibble: 41 x 4
    ## # Groups:   sex, tissue [6]
    ##    sex    tissue       comparison            n
    ##    <chr>  <fct>        <fct>             <int>
    ##  1 female hypothalamus inc.d9_m.inc.d8      40
    ##  2 female hypothalamus inc.d17_prolong    3665
    ##  3 female hypothalamus hatch_extend       6330
    ##  4 female hypothalamus inc.d3_m.inc.d3    1734
    ##  5 female hypothalamus inc.d9_m.inc.d9      90
    ##  6 female hypothalamus inc.d17_m.inc.d17  4030
    ##  7 female hypothalamus m.n2_hatch         6041
    ##  8 female pituitary    inc.d9_m.inc.d8     254
    ##  9 female pituitary    inc.d17_prolong    1419
    ## 10 female pituitary    hatch_extend       2325
    ## # … with 31 more rows
…
