…
      filter(gene %in% candidategenes) %>%
      mutate(posneg = ifelse(lfc >= 0, "+", "-"),
             sex = recode(sex, "female" = "F", "male" = "M" ),
             tissue = recode(tissue, 
                             "hypothalamus" = "H",
                             "pituitary" = "P", "gonad" = "G")) %>%
      mutate(res = paste(sex, tissue, posneg, sep = "")) %>%
      select(gene, res, comparison)  %>%
      group_by(gene,  comparison) %>%
      summarize(res = str_c(res, collapse = " ")) %>%
      pivot_wider(names_from = comparison, values_from = res) %>%
      select(gene, contains("m.")) 
    candidateDEGS

    ## # A tibble: 32 x 16
    ## # Groups:   gene [32]
    ##    gene  m.inc.d17_prolo… inc.d17_m.inc.d… inc.d9_m.inc.d8 hatch_m.n2
    ##    <chr> <chr>            <chr>            <chr>           <chr>     
    ##  1 ADRA… MG+              <NA>             <NA>            <NA>      
    ##  2 AVP   <NA>             FH- MH-          MP+             <NA>      
    ##  3 AVPR… <NA>             <NA>             <NA>            FH+ MP+   
    ##  4 BRIN… <NA>             FG- FH+          <NA>            MH+       
    ##  5 COMT  <NA>             FH- MH-          MH-             FH- MH-   
    ##  6 CREB… <NA>             FP+ MP+          MP+             FH+ FP+ M…
    ##  7 CRH   <NA>             <NA>             <NA>            <NA>      
    ##  8 CRHBP <NA>             FH+ MH+          MH+             FH+ MH+   
    ##  9 CRHR1 <NA>             <NA>             MH+             FH+ FP+ M…
    ## 10 CRHR2 <NA>             FH+ MH+          MH+             FH+ MH+   
    ## # … with 22 more rows, and 11 more variables: m.inc.d3_m.inc.d17 <chr>,
    ## #   m.inc.d3_m.n2 <chr>, inc.d3_m.inc.d3 <chr>, m.inc.d3_m.inc.d9 <chr>,
    ## #   m.inc.d8_extend <chr>, m.inc.d8_prolong <chr>,
    ## #   m.inc.d9_m.inc.d8 <chr>, m.inc.d9_m.n2 <chr>, inc.d9_m.inc.d9 <chr>,
    ## #   m.n2_extend <chr>, m.inc.d9_m.inc.d17 <chr>

    table2 <- left_join(candidateDEGS, GOgenesWide) %>%
      select(gene, m.inc.d17_prolong:m.inc.d9_m.inc.d17, parentalcare, parentalbehavior, NCBI) %>%
      mutate(parentalcare = if_else(is.na(parentalcare), " ", "X"),
             parentalbehavior = if_else(is.na(parentalbehavior), " ", "X")) %>%
      rename("Literature" = "parentalcare", "GO" =  "parentalbehavior")
    table2$numDEGs <- rowSums(is.na(table2)) # count NAs to know how many are NS
    table2 <- table2 %>% 
      mutate(sig = ifelse(numDEGs == 6, "NS", "DEG")) %>% 
      arrange(sig, gene)  %>%  select(-sig, -numDEGs)
    table2[is.na(table2)] <- " " # replace NA with blank space so it's pretty
    table2

    ## # A tibble: 33 x 19
    ## # Groups:   gene [32]
    ##    gene  m.inc.d17_prolo… inc.d17_m.inc.d… inc.d9_m.inc.d8 hatch_m.n2
    ##    <chr> <chr>            <chr>            <chr>           <chr>     
    ##  1 ADRA… "MG+"            " "              " "             " "       
    ##  2 AVP   " "              "FH- MH-"        "MP+"           " "       
    ##  3 AVPR… " "              " "              " "             "FH+ MP+" 
    ##  4 BRIN… " "              "FG- FH+"        " "             "MH+"     
    ##  5 COMT  " "              "FH- MH-"        "MH-"           "FH- MH-" 
    ##  6 CREB… " "              "FP+ MP+"        "MP+"           "FH+ FP+ …
    ##  7 CRH   " "              " "              " "             " "       
    ##  8 CRHBP " "              "FH+ MH+"        "MH+"           "FH+ MH+" 
    ##  9 CRHR1 " "              " "              "MH+"           "FH+ FP+ …
    ## 10 CRHR2 " "              "FH+ MH+"        "MH+"           "FH+ MH+" 
    ## # … with 23 more rows, and 14 more variables: m.inc.d3_m.inc.d17 <chr>,
    ## #   m.inc.d3_m.n2 <chr>, inc.d3_m.inc.d3 <chr>, m.inc.d3_m.inc.d9 <chr>,
    ## #   m.inc.d8_extend <chr>, m.inc.d8_prolong <chr>,
    ## #   m.inc.d9_m.inc.d8 <chr>, m.inc.d9_m.n2 <chr>, inc.d9_m.inc.d9 <chr>,
    ## #   m.n2_extend <chr>, m.inc.d9_m.inc.d17 <chr>, Literature <chr>,
    ## #   GO <chr>, NCBI <chr>
…
