…
    comparisonlevelsmanip <- c("inc.d3_m.inc.d3", "inc.d9_m.inc.d9", "inc.d17_m.inc.d17", "hatch_m.n2",
             "early_inc.d9" ,"hatch_early", "inc.d17_prolong", "hatch_prolong","extend_hatch", "n5_extend")

    # for fig 1
    DEGmanip <- allDEG %>% 
      filter(comparison %in% comparisonlevelsmanip) %>%
      mutate(comparison = factor(comparison, levels = comparisonlevelsmanip))

    DEGmanip %>% 
      group_by(comparison, sex, tissue) %>%
      summarize(totalDEGs = n())  %>%
      arrange(desc(totalDEGs))

    ## # A tibble: 59 x 4
    ## # Groups:   comparison, sex [20]
    ##    comparison        sex    tissue       totalDEGs
    ##    <fct>             <chr>  <chr>            <int>
    ##  1 extend_hatch      female hypothalamus      5499
    ##  2 hatch_m.n2        female hypothalamus      5154
    ##  3 hatch_prolong     female hypothalamus      4979
    ##  4 hatch_early       female hypothalamus      4911
    ##  5 hatch_early       male   hypothalamus      4768
    ##  6 hatch_early       male   pituitary         4579
    ##  7 hatch_early       female pituitary         4198
    ##  8 inc.d17_m.inc.d17 female pituitary         3933
    ##  9 hatch_m.n2        female pituitary         3289
    ## 10 inc.d17_m.inc.d17 female hypothalamus      3149
    ## # … with 49 more rows
…
