…
    ePRL <- candidatevsd  %>%
      filter(gene == "PRL") %>%
      mutate(bird = sapply(strsplit(samples, '\\_'), "[", 1)) %>%
      select(bird, sex, tissue, treatment, counts)  %>%
      pivot_wider(names_from = tissue, values_from = counts) 
    ePRL

    ## # A tibble: 196 x 6
    ##    bird          sex    treatment hypothalamus pituitary gonad
    ##    <chr>         <chr>  <fct>            <dbl>     <dbl> <dbl>
    ##  1 L.G118        female control           13.0      17.9  9.41
    ##  2 R.G106        female control           10.6      17.0  9.60
    ##  3 R.R20         female control           11.2      18.6  9.52
    ##  4 R.R9          female control           10.9      16.8  8.70
    ##  5 R.W44         female control           10.5      18.6 10.1 
    ##  6 blk.s061.pu.y female inc.d9            10.6      17.6  9.22
    ##  7 blk11.x       female bldg              10.1      17.6  9.34
    ##  8 blk21.x       female hatch             11.7      20.4  9.25
    ##  9 blk4.x        female n9                12.6      19.2  9.20
    ## 10 blu.o.x.ATLAS female control           10.8      20.9  9.13
    ## # … with 186 more rows
…
