…
total degs
----------

    allDEG %>%
      group_by(sex, tissue, comparison) %>%
      summarize(totalDEGs = n()) %>%
      arrange(tissue, comparison)

    ## # A tibble: 37 x 4
    ## # Groups:   sex, tissue [6]
    ##    sex    tissue       comparison     totalDEGs
    ##    <chr>  <fct>        <fct>              <int>
    ##  1 female hypothalamus control_bldg        5683
    ##  2 male   hypothalamus control_bldg        6683
    ##  3 female hypothalamus bldg_lay               1
    ##  4 male   hypothalamus bldg_lay               1
    ##  5 female hypothalamus inc.d3_inc.d9          1
    ##  6 female hypothalamus inc.d9_inc.d17         5
    ##  7 male   hypothalamus inc.d9_inc.d17        87
    ##  8 female hypothalamus inc.d17_hatch          3
    ##  9 male   hypothalamus inc.d17_hatch          6
    ## 10 female hypothalamus hatch_n5            1927
    ## # … with 27 more rows
…
    ## # A tibble: 6 x 8
    ##   sex    tissue comparison direction gene           lfc     padj logpadj
    ##   <chr>  <fct>  <fct>      <fct>     <chr>        <dbl>    <dbl>   <dbl>
    ## 1 female gonad  bldg_lay   lay       LOC107053414  9.72 4.76e- 4    3.32
    ## 2 female gonad  bldg_lay   lay       MUC           5.82 2.72e- 3    2.57
    ## 3 female gonad  bldg_lay   lay       OVSTL         5.45 9.58e-10    9.02
    ## 4 female gonad  bldg_lay   lay       AOC1          4.41 2.75e- 3    2.56
    ## 5 female gonad  bldg_lay   lay       ETNPPL        4.25 4.76e- 5    4.32
    ## 6 female gonad  bldg_lay   lay       GKN2          3.99 1.63e- 2    1.79

    allDEG %>%
      drop_na()

    ## # A tibble: 46,764 x 8
    ##    sex    tissue comparison direction gene           lfc     padj logpadj
    ##    <chr>  <fct>  <fct>      <fct>     <chr>        <dbl>    <dbl>   <dbl>
    ##  1 female gonad  bldg_lay   lay       LOC107053414  9.72 4.76e- 4    3.32
    ##  2 female gonad  bldg_lay   lay       MUC           5.82 2.72e- 3    2.57
    ##  3 female gonad  bldg_lay   lay       OVSTL         5.45 9.58e-10    9.02
    ##  4 female gonad  bldg_lay   lay       AOC1          4.41 2.75e- 3    2.56
    ##  5 female gonad  bldg_lay   lay       ETNPPL        4.25 4.76e- 5    4.32
    ##  6 female gonad  bldg_lay   lay       GKN2          3.99 1.63e- 2    1.79
    ##  7 female gonad  bldg_lay   lay       COL10A1       3.69 4.29e- 2    1.37
    ##  8 female gonad  bldg_lay   lay       CA4           3.47 3.89e- 4    3.41
    ##  9 female gonad  bldg_lay   lay       GAL3ST2       3.37 1.16e- 2    1.93
    ## 10 female gonad  bldg_lay   lay       NEU4          3.12 8.98e- 3    2.05
    ## # … with 46,754 more rows
…
