…
    ## Parsed with column specification:
    ## cols(
    ##   sex = col_character(),
    ##   tissue = col_character(),
    ##   comparison = col_character(),
    ##   direction = col_character(),
    ##   gene = col_character(),
    ##   lfc = col_double(),
    ##   padj = col_double(),
    ##   logpadj = col_double()
    ## )

    allDEG

    ## # A tibble: 317,962 x 9
    ##    sex    tissue    comparison direction gene      lfc    padj logpadj label    
    ##    <chr>  <fct>     <chr>      <fct>     <chr>   <dbl>   <dbl>   <dbl> <chr>    
    ##  1 female hypothal… bldg_exte… extend    C1ORF1…  3.19 9.84e-2    1.01 "bldg\nv…
    ##  2 female hypothal… bldg_exte… extend    LOC107…  2.32 4.40e-2    1.36 "bldg\nv…
    ##  3 female hypothal… bldg_exte… extend    LOC107…  2.26 1.19e-2    1.92 "bldg\nv…
    ##  4 female hypothal… bldg_exte… extend    TGM4     2.14 5.79e-2    1.24 "bldg\nv…
    ##  5 female hypothal… bldg_exte… extend    PNO1     2.10 5.46e-4    3.26 "bldg\nv…
    ##  6 female hypothal… bldg_exte… extend    LOC769…  2.09 8.25e-4    3.08 "bldg\nv…
    ##  7 female hypothal… bldg_exte… extend    LAMB4    2.07 3.10e-2    1.51 "bldg\nv…
    ##  8 female hypothal… bldg_exte… extend    SLC6A14  1.98 4.41e-2    1.36 "bldg\nv…
    ##  9 female hypothal… bldg_exte… extend    TMED11   1.93 1.82e-2    1.74 "bldg\nv…
    ## 10 female hypothal… bldg_exte… extend    PPP2R5C  1.84 6.86e-3    2.16 "bldg\nv…
    ## # … with 317,952 more rows
…
