…
    ## Parsed with column specification:
    ## cols(
    ##   sex = col_character(),
    ##   tissue = col_character(),
    ##   comparison = col_character(),
    ##   direction = col_character(),
    ##   gene = col_character(),
    ##   lfc = col_double(),
    ##   padj = col_double(),
    ##   logpadj = col_double()
    ## )

    allDEG

    ## # A tibble: 276,508 x 9
    ##    sex    tissue   comparison direction gene      lfc     padj logpadj label    
    ##    <chr>  <fct>    <chr>      <fct>     <chr>   <dbl>    <dbl>   <dbl> <chr>    
    ##  1 female pituita… bldg_exte… extend    MLN      4.61 2.90e-15   14.5  "bldg\nv…
    ##  2 female pituita… bldg_exte… extend    LOC101…  4.08 8.86e- 7    6.05 "bldg\nv…
    ##  3 female pituita… bldg_exte… extend    FGF6     3.57 9.40e- 7    6.03 "bldg\nv…
    ##  4 female pituita… bldg_exte… extend    PRPH2    3.40 4.63e- 2    1.33 "bldg\nv…
    ##  5 female pituita… bldg_exte… extend    TMEM240  3.31 3.58e- 4    3.45 "bldg\nv…
    ##  6 female pituita… bldg_exte… extend    PRL      3.21 5.47e-24   23.3  "bldg\nv…
    ##  7 female pituita… bldg_exte… extend    LOC101…  3.00 6.00e- 2    1.22 "bldg\nv…
    ##  8 female pituita… bldg_exte… extend    LOC107…  2.79 1.40e- 7    6.85 "bldg\nv…
    ##  9 female pituita… bldg_exte… extend    PDE11A   2.63 3.58e- 4    3.45 "bldg\nv…
    ## 10 female pituita… bldg_exte… extend    STC1     2.63 7.07e-15   14.2  "bldg\nv…
    ## # … with 276,498 more rows
…
